fastduck – Source
…
┌─────────┬───────────────────────────────────────┐
│ AlbumId │                 Title                 │
│  int32  │                varchar                │
├─────────┼───────────────────────────────────────┤
│       1 │ For Those About To Rock We Salute You │
│       2 │ Balls to the Wall                     │
│       3 │ Restless and Wild                     │
│       4 │ Let There Be Rock                     │
└─────────┴───────────────────────────────────────┘

Let’s also improve the representation of Relations.

db.s.chinook_main.t.Album

┌─────────┬─────────────────────────────────────────────────────────────────────┬──────────┐
│ AlbumId │                                Title                                │ ArtistId │
│  int32  │                               varchar                               │  int32   │
├─────────┼─────────────────────────────────────────────────────────────────────┼──────────┤
│       1 │ For Those About To Rock We Salute You                               │        1 │
│       2 │ Balls to the Wall                                                   │        2 │
│       3 │ Restless and Wild                                                   │        2 │
│       4 │ Let There Be Rock                                                   │        1 │
│       5 │ Big Ones                                                            │        3 │
│       6 │ Jagged Little Pill                                                  │        4 │
│       7 │ Facelift                                                            │        5 │
│       8 │ Warner 25 Anos                                                      │        6 │
│       9 │ Plays Metallica By Four Cellos                                      │        7 │
│      10 │ Audioslave                                                          │        8 │
│       · │     ·                                                               │        · │
│       · │     ·                                                               │        · │
│       · │     ·                                                               │        · │
│     338 │ Nielsen: The Six Symphonies                                         │      267 │
│     339 │ Great Recordings of the Century: Paganini's 24 Caprices             │      268 │
│     340 │ Liszt - 12 Études D'Execution Transcendante                         │      269 │
│     341 │ Great Recordings of the Century - Shubert: Schwanengesang, 4 Lieder │      270 │
│     342 │ Locatelli: Concertos for Violin, Strings and Continuo, Vol. 3       │      271 │
│     343 │ Respighi:Pines of Rome                                              │      226 │
│     344 │ Schubert: The Late String Quartets & String Quintet (3 CD's)        │      272 │
│     345 │ Monteverdi: L'Orfeo                                                 │      273 │
│     346 │ Mozart: Chamber Music                                               │      274 │
│     347 │ Koyaanisqatsi (Soundtrack from the Motion Picture)                  │      275 │
├─────────┴─────────────────────────────────────────────────────────────────────┴──────────┤
│ 347 rows (20 shown)                                                            3 columns │
└──────────────────────────────────────────────────────────────────────────────────────────┘
…
db.import_from('../data/chinook.sqlite', schema = 'cebola', replace=True)

db.tables.show()

┌─────────┬─────────┬───────────────┬────────────┬─────────────┐
│ catalog │ schema  │     name      │    type    │   comment   │
│ varchar │ varchar │    varchar    │  varchar   │   varchar   │
├─────────┼─────────┼───────────────┼────────────┼─────────────┤
│ chinook │ main    │ Album         │ BASE TABLE │ Album table │
│ chinook │ cebola  │ Album         │ BASE TABLE │ NULL        │
│ chinook │ cebola  │ Artist        │ BASE TABLE │ NULL        │
│ chinook │ main    │ Artist        │ BASE TABLE │ NULL        │
│ chinook │ cebola  │ Customer      │ BASE TABLE │ NULL        │
│ chinook │ main    │ Customer      │ BASE TABLE │ NULL        │
│ chinook │ cebola  │ Employee      │ BASE TABLE │ NULL        │
│ chinook │ main    │ Employee      │ BASE TABLE │ NULL        │
│ chinook │ cebola  │ Genre         │ BASE TABLE │ NULL        │
│ chinook │ main    │ Genre         │ BASE TABLE │ NULL        │
│    ·    │  ·      │   ·           │     ·      │  ·          │
│    ·    │  ·      │   ·           │     ·      │  ·          │
│    ·    │  ·      │   ·           │     ·      │  ·          │
│ chinook │ main    │ MediaType     │ BASE TABLE │ NULL        │
│ chinook │ cebola  │ Playlist      │ BASE TABLE │ NULL        │
│ chinook │ main    │ Playlist      │ BASE TABLE │ NULL        │
│ chinook │ cebola  │ PlaylistTrack │ BASE TABLE │ NULL        │
│ chinook │ main    │ PlaylistTrack │ BASE TABLE │ NULL        │
│ chinook │ main    │ Track         │ BASE TABLE │ NULL        │
│ chinook │ cebola  │ Track         │ BASE TABLE │ NULL        │
│ chinook │ main    │ todos         │ BASE TABLE │ NULL        │
│ chinook │ main    │ a_view        │ VIEW       │ Just a view │
│ chinook │ main    │ temp_view     │ VIEW       │ NULL        │
├─────────┴─────────┴───────────────┴────────────┴─────────────┤
│ 25 rows (20 shown)                                 5 columns │
└──────────────────────────────────────────────────────────────┘
…
