fastduck – Source
…
db.import_from('../data/chinook.sqlite', schema = 'cebola', replace=True)

db.tables.show()

┌─────────┬─────────┬───────────────┬────────────┬─────────────┐
│ catalog │ schema  │     name      │    type    │   comment   │
│ varchar │ varchar │    varchar    │  varchar   │   varchar   │
├─────────┼─────────┼───────────────┼────────────┼─────────────┤
│ chinook │ cebola  │ Album         │ BASE TABLE │ NULL        │
│ chinook │ main    │ Album         │ BASE TABLE │ Album table │
│ chinook │ cebola  │ Artist        │ BASE TABLE │ NULL        │
│ chinook │ main    │ Artist        │ BASE TABLE │ NULL        │
│ chinook │ main    │ Customer      │ BASE TABLE │ NULL        │
│ chinook │ cebola  │ Customer      │ BASE TABLE │ NULL        │
│ chinook │ main    │ Employee      │ BASE TABLE │ NULL        │
│ chinook │ cebola  │ Employee      │ BASE TABLE │ NULL        │
│ chinook │ cebola  │ Genre         │ BASE TABLE │ NULL        │
│ chinook │ main    │ Genre         │ BASE TABLE │ NULL        │
│    ·    │  ·      │   ·           │     ·      │  ·          │
│    ·    │  ·      │   ·           │     ·      │  ·          │
│    ·    │  ·      │   ·           │     ·      │  ·          │
│ chinook │ main    │ MediaType     │ BASE TABLE │ NULL        │
│ chinook │ cebola  │ MediaType     │ BASE TABLE │ NULL        │
│ chinook │ cebola  │ Playlist      │ BASE TABLE │ NULL        │
│ chinook │ main    │ Playlist      │ BASE TABLE │ NULL        │
│ chinook │ cebola  │ PlaylistTrack │ BASE TABLE │ NULL        │
│ chinook │ main    │ PlaylistTrack │ BASE TABLE │ NULL        │
│ chinook │ main    │ Track         │ BASE TABLE │ NULL        │
│ chinook │ cebola  │ Track         │ BASE TABLE │ NULL        │
│ chinook │ main    │ a_view        │ VIEW       │ Just a view │
│ chinook │ main    │ temp_view     │ VIEW       │ NULL        │
├─────────┴─────────┴───────────────┴────────────┴─────────────┤
│ 24 rows (20 shown)                                 5 columns │
└──────────────────────────────────────────────────────────────┘
…
